<?xml version="1.0" encoding="utf-8"?>
<!-- Generator: Adobe Illustrator 21.0.2, SVG Export Plug-In . SVG Version: 6.00 Build 0)  -->
<svg version="1.1" id="Layer_1" xmlns="http://www.w3.org/2000/svg" xmlns:xlink="http://www.w3.org/1999/xlink" x="0px" y="0px"
	 viewBox="0 0 612 612" style="enable-background:new 0 0 612 612;" xml:space="preserve">
<style type="text/css">
	.st0{fill:#40C4FF;}
	.st1{fill:#121212;}
	.st2{fill:#FFB17F;}
	.st3{fill:#323D4F;}
	.st4{fill:#DDF7F1;}
	.st5{fill:#FFFFFF;}
	.st6{fill:#E59867;}
	.st7{fill:#BBEFE3;}
	.st8{fill:#5B6472;}
	.st9{fill:#BDC1C7;}
</style>
<g>
	<path class="st0" d="M611.6,0H0.4H0v612h231.9v-0.7v-16.8c-2.4-1-4.7-2.3-6.9-3.7h-3.6v-2.9c-1.9-1.6-3.6-3.3-5.1-5.2l-13.4,13.1
		l-31.6-32.3h-52.2h-11.3v-64.9l-12.6-12.9c-0.7-0.7-1.2-1.5-1.9-2.3c-4.7-4.4-7.6-10.3-8.4-16.8c-2.1-9.9,0.1-20,7.1-26.8
		c0.1-0.1,0.3-0.2,0.4-0.3c0.1-0.1,0.1-0.3,0.2-0.4l1.7-2.3l-0.2-0.1l13.6-17.8v-20.1h11.3h4.1l64.6-84.4c7.2-9.3,17.4-14.5,27.3-15
		V299h6.3h29.7h4.3h10.1c0.9,0,1.7,0,2.2,0H280h0.1v-21.8c-23-10.2-40.8-29.7-48.8-53.8h-4.4c-10.4,0-18.9-8.5-18.9-18.9
		c0-8.3,5.3-15.2,12.7-17.8v-0.1v-53.1v-1.9l0.4,0v-3c0-1.2,0.1-2.3,0.2-3.5c-0.1-1.4-0.2-2.7-0.2-4.1c0-2.5,0.2-4.9,0.4-7.4
		c-2-1.3-4-2.5-6-3.9c4-12.5,10.3-23.9,18.6-33.6c-2.1-1.4-4.2-2.8-6.1-4.3c13.6-20,36.9-35.1,65-39.4c19.1-3,37.5-0.4,53.4,6.2
		c14.2-1.2,28.4,1.8,40.8,9.9c18.3,11.9,28.4,32,29.4,53.7c-3.1,1.2-6.2,2.1-9.3,2.9c2.8,7.4,4.2,15.4,4.2,23.6v0.8l0.3,0v4.1l0,0
		v53.1h0v0.5c7.4,2.6,12.8,9.5,12.8,17.8c0,10.4-8.5,18.9-18.9,18.9h-4.5c-8,23.9-25.8,43.2-48.6,53.3V299h0.1h12.1
		c0.5,0,1.3,0,2.1,0h10.5h4h30.5h5.6c16.4,0,29.8,15.7,29.8,35v277.2v0.7H612V0H611.6z"/>
	<polygon class="st0" points="221.5,387.2 210.8,398.7 221.5,398.7 	"/>
	<polygon class="st1" points="411.7,133.5 411.7,129.4 411.4,129.4 411.4,132.8 	"/>
	<path class="st1" d="M220.7,186.7L220.7,186.7c0.1,0,0.1,0,0.2,0H220.7z"/>
	<path class="st1" d="M411.7,187.2v-0.5h-1.6C410.7,186.8,411.2,187,411.7,187.2z"/>
	<polygon class="st1" points="221,131.7 220.7,131.7 220.7,133.5 221,132.7 	"/>
	<path class="st2" d="M352.5,277.2c22.8-10.1,40.6-29.5,48.6-53.3h4.5c10.4,0,18.9-8.5,18.9-18.9c0-8.3-5.4-15.2-12.8-17.8
		c-0.5-0.2-1.1-0.4-1.6-0.5h-13.2v-56.4c-4.3-8.9-9.9-17-16.8-23.9c-8.6-1.4-16.9-4.4-24.5-9.3c-4.5-2.9-8.5-6.4-12-10.2
		c-10.7,17.3-26.7,30.8-46.7,37.4c-19.1,6.3-38.9,5.2-57.1-1.5c-1.5,2.5-2.9,5-4.1,7.7v55.3v1.1h-14.7c-0.1,0-0.1,0-0.2,0.1
		c-7.4,2.6-12.7,9.5-12.7,17.8c0,10.4,8.5,18.9,18.9,18.9h4.4c8,24.1,25.8,43.6,48.8,53.8c11.1,4.9,23.3,7.7,36.2,7.7
		C329.2,284.9,341.4,282.1,352.5,277.2z M362.7,170.6c6,0,10.8,5.1,10.8,11.4c0,6.3-4.8,11.4-10.8,11.4c-5.9,0-10.8-5.1-10.8-11.4
		C351.9,175.7,356.7,170.6,362.7,170.6z M259.1,181.9c0-6.3,4.8-11.4,10.8-11.4c6,0,10.8,5.1,10.8,11.4c0,6.3-4.8,11.4-10.8,11.4
		C263.9,193.3,259.1,188.2,259.1,181.9z M276.5,211.8v-0.9l79.5-0.3l0,0.9c0.1,22-17.7,39.8-39.6,39.9
		C294.4,251.5,276.5,233.7,276.5,211.8z"/>
	<path class="st3" d="M362.7,193.3c6,0,10.8-5.1,10.8-11.4c0-6.3-4.8-11.4-10.8-11.4c-5.9,0-10.8,5.1-10.8,11.4
		C351.9,188.2,356.7,193.3,362.7,193.3z"/>
	<path class="st3" d="M280.6,181.9c0-6.3-4.8-11.4-10.8-11.4c-5.9,0-10.8,5.1-10.8,11.4c0,6.3,4.8,11.4,10.8,11.4
		C275.8,193.3,280.6,188.2,280.6,181.9z"/>
	<path class="st4" d="M306,339.6l0-1.2c-2.3-2.3-3.9-5.2-4.3-8.6h-21.5v69h20.3L306,339.6z"/>
	<polygon class="st4" points="316.3,329.7 352.5,299 316.3,329.7 	"/>
	<path class="st4" d="M326.5,338.2l0,1.4l5.4,59.1h1.5h11.3v163.1h7.7V329.7h-21.9C330.2,333,328.7,335.9,326.5,338.2z"/>
	<polygon class="st4" points="316.3,329.7 280.2,299.1 280.2,299.2 316.2,329.7 	"/>
	<path class="st3" d="M447.3,334.1c0-19.3-13.4-35-29.8-35h-5.6h-30.5h-4v81l-9.7,9.7l9.7,9.7v34.4l-24.7,24.1V299h-0.1v13.2v17.5
		v232.1h-7.7v1.6h-11.3h-46c-3.1,19.4-19.7,34.2-39.9,34.2c-5.6,0-10.9-1.1-15.7-3.2v16.8v0.7h110.2H365h22.7h5.5h6.3h42.3h5.5v-0.7
		V334.1z"/>
	<path class="st3" d="M235.6,186.7v-1.1v-55.3c1.3-2.6,2.6-5.2,4.1-7.7c18.2,6.7,38,7.7,57.1,1.5c20-6.6,36-20.1,46.7-37.4
		c3.5,3.8,7.5,7.3,12,10.2c7.6,5,16,8,24.5,9.3c6.8,7,12.5,15.1,16.8,23.9v56.4h13.2h1.6h0v-53.1l0,0l-0.3-0.7v-3.4v-0.8
		c0-8.2-1.5-16.1-4.2-23.6c3.1-0.8,6.3-1.7,9.3-2.9c-1-21.6-11.1-41.7-29.4-53.7c-12.4-8.1-26.6-11.1-40.8-9.9
		c-15.8-6.6-34.3-9.1-53.4-6.2c-28.1,4.3-51.4,19.4-65,39.4c1.9,1.5,4,2.9,6.1,4.3c-8.2,9.7-14.6,21.1-18.6,33.6
		c1.9,1.4,4,2.6,6,3.9c-0.2,2.4-0.4,4.9-0.4,7.4c0,1.4,0.1,2.8,0.2,4.1c-0.1,1.2-0.2,2.3-0.2,3.5v3v1l-0.4,0.9v53.1h0.2H235.6z"/>
	<path class="st5" d="M356,211.5l0-0.9l-79.5,0.3v0.9c0.1,22,17.9,39.7,39.9,39.6C338.3,251.4,356.1,233.5,356,211.5z"/>
	<path class="st6" d="M280.2,299.1l36.1,30.6l36.2-30.7v-21.8c-11.1,4.9-23.3,7.7-36.2,7.7c-12.9,0-25.1-2.8-36.2-7.7V299h0.1V299.1
		z"/>
	<polygon class="st7" points="330.6,329.7 352.5,329.7 352.5,312.2 352.5,299 316.3,329.7 	"/>
	<polygon class="st7" points="316.2,329.7 280.2,299.2 280.2,329.7 301.7,329.7 	"/>
	<path class="st3" d="M301.7,329.7c0.4,3.4,2,6.4,4.3,8.6l0,1.2l-5.4,59.1H332l-5.4-59.1l0-1.4c2.2-2.2,3.7-5.1,4.1-8.4h-14.3h0
		h-0.1H301.7z"/>
	<path class="st3" d="M221.5,590.8h3.6c-1.3-0.9-2.4-1.9-3.6-2.9V590.8z"/>
	<path class="st8" d="M265.1,389.7l-9,9h24.1v-69v-30.5v-0.1V299H280H280h-12.2c-0.5,0-1.3,0-2.2,0h-10.1v81L265.1,389.7z"/>
	<path class="st8" d="M377.4,433.8v-34.4l-9.7-9.7l9.7-9.7v-81h-10.5c-0.9,0-1.6,0-2.1,0h-12.1v158.8L377.4,433.8z"/>
	<path class="st2" d="M287.5,563.4h-20.2l10.7-10.7c4.4-4.3,4.4-11.4,0-15.8c-4.3-4.4-11.4-4.4-15.8,0l-17,16.9l-8.6,8.6
		c-0.3,0.3-0.4,0.6-0.6,0.9c0,0-0.1,0.1-0.1,0.1h0l-19.6,19.1c1.6,1.9,3.3,3.7,5.1,5.2c1.2,1,2.3,2.1,3.6,2.9
		c2.1,1.4,4.4,2.7,6.9,3.7c4.8,2,10.1,3.2,15.7,3.2C267.8,597.6,284.5,582.8,287.5,563.4z"/>
	<path class="st5" d="M333.5,398.7H332h-31.5h-20.3h-24.1h-34.6h-10.7l-57,61.6l62.4,63.8v-98.4h8.1v99.8h-6.8l27.7,28.3l17-16.9
		c4.4-4.3,11.5-4.3,15.8,0c4.4,4.4,4.3,11.5,0,15.8l-10.7,10.7h20.2h46h11.3v-1.6V398.7H333.5z M242.8,525.5h-8.1v-99.8h8.1V525.5z
		 M261.2,525.5h-8.1v-99.8h8.1V525.5z M279.7,525.5h-8.1v-99.8h8.1V525.5z M298.2,525.5h-8.1v-99.8h8.1V525.5z"/>
	<polygon class="st5" points="107.9,563.4 119.1,563.4 171.3,563.4 107.9,498.5 	"/>
	<polygon class="st5" points="119.1,398.7 107.9,398.7 107.9,418.8 123.3,398.7 	"/>
	<path class="st5" d="M236,563.4c0,0,0.1-0.1,0.1-0.1L236,563.4L236,563.4z"/>
	<path class="st3" d="M236.1,563.3c0.2-0.3,0.3-0.6,0.6-0.9l8.6-8.6l-27.7-28.3h-1.3v-1.4l-62.4-63.8l57-61.6l10.7-11.5v11.5h34.6
		l9-9l-9.7-9.7v-81h-4.3h-29.7h-6.3v0.3c-9.9,0.4-20.2,5.6-27.3,15l-64.6,84.4l-15.4,20.1l-13.6,17.8l0.2,0.1l-1.7,2.3
		c-0.1,0.1-0.2,0.3-0.2,0.4c-0.1,0.1-0.3,0.2-0.4,0.3c-7,6.8-9.2,16.9-7.1,26.8c0.9,6.5,3.7,12.4,8.4,16.8c0.6,0.8,1.2,1.6,1.9,2.3
		l12.6,12.9l63.5,64.9l31.6,32.3l13.4-13.1l19.6-19.1L236.1,563.3z"/>
	<rect x="290.1" y="425.7" class="st9" width="8.1" height="99.8"/>
	<rect x="271.6" y="425.7" class="st9" width="8.1" height="99.8"/>
	<rect x="253.1" y="425.7" class="st9" width="8.1" height="99.8"/>
	<rect x="234.7" y="425.7" class="st9" width="8.1" height="99.8"/>
	<polygon class="st9" points="224.3,425.7 216.2,425.7 216.2,524.1 216.2,525.5 217.6,525.5 224.3,525.5 	"/>
</g>
</svg>
