<?xml version="1.0" encoding="utf-8"?>
<!-- Generator: Adobe Illustrator 21.0.2, SVG Export Plug-In . SVG Version: 6.00 Build 0)  -->
<svg version="1.1" id="Layer_1" xmlns="http://www.w3.org/2000/svg" xmlns:xlink="http://www.w3.org/1999/xlink" x="0px" y="0px"
	 viewBox="0 0 612 612" style="enable-background:new 0 0 612 612;" xml:space="preserve">
<style type="text/css">
	.st0{fill:#40C4FF;}
	.st1{fill:#FFFFFF;}
</style>
<g>
	<path class="st0" d="M610.1,0H1.9H0v612h1.9h608.2h1.9V0H610.1z M537.1,537H75.4V263.9l2.7-1.1L307,175.2l1.5,0.6l228.5,88.1V537z"
		/>
	<path class="st0" d="M287.7,437.7c-3.3,0-5.9,1.3-7.7,3.8c-1.8,2.5-2.8,6.3-2.8,11.3c0,4.4,0.9,7.9,2.8,10.4
		c1.8,2.5,4.4,3.8,7.6,3.8c4.3,0,7.4-1.9,9.3-5.7v-18C294.9,439.5,291.8,437.7,287.7,437.7z"/>
	<path class="st0" d="M253.4,317c2.6,0,4.4-1,5.5-3c1.1-2,1.7-5.1,1.8-9.2v-12.6c0-4.4-0.6-7.6-1.8-9.6c-1.2-2-3.1-3-5.6-3
		c-2.5,0-4.3,1-5.5,2.9c-1.2,1.9-1.8,4.9-1.9,8.9v12.8c0,4.3,0.6,7.5,1.8,9.6C248.9,316,250.8,317,253.4,317z"/>
	<path class="st0" d="M205.2,386.5c0,2.1,0.7,3.7,2.1,4.9c1.4,1.2,3.2,1.8,5.4,1.8c2.1,0,4.1-0.5,6-1.6c1.9-1.1,3.3-2.5,4.1-4.2v-8
		h-5.3C209.3,379.3,205.2,381.7,205.2,386.5z"/>
	<path class="st0" d="M384.1,437.7c-3.3,0-5.8,1.3-7.7,3.8c-1.8,2.5-2.8,6.3-2.8,11.3c0,4.4,0.9,7.9,2.7,10.4
		c1.8,2.5,4.3,3.8,7.6,3.8c4.2,0,7.3-1.9,9.3-5.8v-17.9C391.3,439.6,388.2,437.7,384.1,437.7z"/>
	<path class="st0" d="M180.7,439.4c1.8-1.5,2.7-3.6,2.7-6.2c0-2.9-0.9-5-2.5-6.3c-1.7-1.3-4.3-2-7.7-2h-10.3v16.8h10.5
		C176.5,441.7,178.9,440.9,180.7,439.4z"/>
	<path class="st0" d="M174.5,447.3h-11.6v19h11.5c3.2,0,5.8-0.8,7.7-2.5c1.9-1.7,2.8-4,2.8-6.9C184.9,450.4,181.4,447.3,174.5,447.3
		z"/>
	<path class="st0" d="M180.7,365.8c1.8-1.5,2.7-3.6,2.7-6.2c0-2.9-0.9-5-2.5-6.3c-1.7-1.3-4.3-2-7.7-2h-10.3v16.8h10.5
		C176.5,368.1,178.9,367.3,180.7,365.8z"/>
	<path class="st0" d="M174.5,373.7h-11.6v19h11.5c3.2,0,5.8-0.8,7.7-2.5c1.9-1.7,2.8-4,2.8-6.9C184.9,376.8,181.4,373.7,174.5,373.7
		z"/>
	<path class="st0" d="M290.8,363.9c-2.7,0-5,1-6.8,3c-1.8,2-3,4.7-3.4,8.3h19.6v-0.5c-0.2-3.4-1.1-6.1-2.8-7.9
		C295.8,364.8,293.6,363.9,290.8,363.9z"/>
	<path class="st0" d="M355.7,317c2.6,0,4.4-1,5.5-3c1.1-2,1.7-5.1,1.8-9.2v-12.6c0-4.4-0.6-7.6-1.8-9.6c-1.2-2-3.1-3-5.6-3
		c-2.5,0-4.3,1-5.5,2.9c-1.2,1.9-1.8,4.9-1.9,8.9v12.8c0,4.3,0.6,7.5,1.8,9.6C351.2,316,353.1,317,355.7,317z"/>
	<path class="st0" d="M396.8,317c2.6,0,4.4-1,5.5-3c1.1-2,1.7-5.1,1.8-9.2v-12.6c0-4.4-0.6-7.6-1.8-9.6c-1.2-2-3.1-3-5.6-3
		c-2.5,0-4.3,1-5.5,2.9c-1.2,1.9-1.8,4.9-1.9,8.9v12.8c0,4.3,0.6,7.5,1.8,9.6C392.4,316,394.2,317,396.8,317z"/>
	<path class="st0" d="M84,269.8v258.7h444.6V269.8L307,184.3L84,269.8z M279.4,315.5c1.1-1,2.5-1.6,4.2-1.6c1.7,0,3.1,0.5,4.3,1.6
		c1.1,1,1.7,2.4,1.7,4.1c0,1.6-0.6,3-1.7,4c-1.1,1-2.5,1.5-4.3,1.5c-1.7,0-3.1-0.5-4.2-1.5c-1.1-1-1.7-2.4-1.7-4
		C277.7,317.9,278.3,316.6,279.4,315.5z M176.8,306.1c-1.1-1.2-3-2.3-5.6-3.2c-2.6-1-4.9-2-6.8-3s-3.5-2.1-4.9-3.4
		c-1.4-1.3-2.4-2.8-3.2-4.5c-0.8-1.7-1.1-3.8-1.1-6.1c0-4.1,1.3-7.4,3.9-10c2.6-2.6,6.1-4.1,10.4-4.6v-7.8h5.8v7.9
		c4.3,0.6,7.6,2.4,10,5.4c2.4,3,3.6,6.8,3.6,11.5h-10.5c0-2.9-0.6-5.1-1.8-6.5c-1.2-1.4-2.8-2.2-4.8-2.2c-2,0-3.5,0.6-4.6,1.7
		c-1.1,1.1-1.6,2.7-1.6,4.7c0,1.8,0.5,3.3,1.6,4.4c1.1,1.1,3,2.3,5.9,3.4c2.9,1.2,5.3,2.3,7.1,3.3c1.9,1,3.4,2.2,4.7,3.5
		c1.3,1.3,2.3,2.8,2.9,4.4c0.7,1.6,1,3.6,1,5.8c0,4.1-1.3,7.4-3.8,10c-2.6,2.6-6.1,4.1-10.6,4.5v7.2h-5.8v-7.2
		c-4.9-0.5-8.8-2.3-11.5-5.3c-2.7-3-4.1-7-4.1-11.9h10.5c0,2.9,0.7,5.1,2.1,6.6c1.4,1.5,3.3,2.3,5.9,2.3c2.1,0,3.8-0.6,5-1.7
		c1.2-1.1,1.8-2.6,1.8-4.5C178.4,308.9,177.9,307.3,176.8,306.1z M187.3,467.9c-3.1,2.7-7.4,4.1-13,4.1h-18.3v-52.8h17.3
		c5.7,0,10,1.2,12.9,3.5c2.9,2.4,4.3,5.9,4.3,10.5c0,2.5-0.7,4.6-2.1,6.5c-1.4,1.9-3.3,3.4-5.7,4.4c2.9,0.8,5.1,2.3,6.8,4.5
		c1.7,2.2,2.5,4.9,2.5,8C191.9,461.5,190.3,465.2,187.3,467.9z M187.3,394.3c-3.1,2.7-7.4,4.1-13,4.1h-18.3v-52.8h17.3
		c5.7,0,10,1.2,12.9,3.5c2.9,2.4,4.3,5.9,4.3,10.5c0,2.5-0.7,4.6-2.1,6.5c-1.4,1.9-3.3,3.4-5.7,4.4c2.9,0.8,5.1,2.3,6.8,4.5
		c1.7,2.2,2.5,4.9,2.5,8C191.9,387.9,190.3,391.6,187.3,394.3z M194.7,310.1h10.4c0.2,2.2,1,3.9,2.3,5.1c1.3,1.2,3,1.8,5.2,1.8
		c2.4,0,4.2-0.9,5.5-2.6c1.3-1.7,1.9-4.1,1.9-7.2c0-3-0.7-5.3-2.2-6.9c-1.5-1.6-3.6-2.4-6.3-2.4c-2.5,0-4.5,0.7-6.1,2l-1,0.9
		l-8.3-2.1l3-26.8h29.6v8.7h-21l-1.3,11.3c2.5-1.3,5.1-2,7.9-2c5,0,9,1.6,11.8,4.7c2.9,3.1,4.3,7.5,4.3,13.1c0,3.4-0.7,6.5-2.2,9.2
		c-1.4,2.7-3.5,4.8-6.2,6.3c-2.7,1.5-5.9,2.2-9.5,2.2c-3.2,0-6.1-0.6-8.9-1.9c-2.7-1.3-4.9-3.1-6.5-5.5
		C195.7,315.7,194.8,313.1,194.7,310.1z M230.4,472H224l-0.1-3.9c-2.6,3.1-6.4,4.6-11.5,4.6c-4.2,0-7.4-1.2-9.6-3.6
		c-2.2-2.4-3.3-6-3.3-10.8v-25.5h6.7v25.4c0,5.9,2.4,8.9,7.3,8.9c5.1,0,8.5-1.9,10.2-5.7v-28.5h6.7V472z M230.9,398.4h-7
		c-0.4-0.8-0.7-2.2-0.9-4.1c-3.1,3.2-6.8,4.9-11.2,4.9c-3.9,0-7-1.1-9.5-3.3c-2.5-2.2-3.7-5-3.7-8.3c0-4.1,1.6-7.3,4.7-9.5
		c3.1-2.3,7.5-3.4,13.1-3.4h6.5v-3.1c0-2.3-0.7-4.2-2.1-5.6c-1.4-1.4-3.5-2.1-6.2-2.1c-2.4,0-4.4,0.6-6,1.8
		c-1.6,1.2-2.4,2.7-2.4,4.4h-6.7c0-2,0.7-3.9,2.1-5.7c1.4-1.8,3.3-3.3,5.7-4.3c2.4-1.1,5-1.6,7.9-1.6c4.5,0,8.1,1.1,10.6,3.4
		s3.9,5.4,4,9.3v18.1c0,3.6,0.5,6.5,1.4,8.6V398.4z M235.5,293.8c0-7.4,1.5-13,4.6-16.8c3.1-3.8,7.5-5.7,13.2-5.7
		c5.8,0,10.2,1.9,13.2,5.7c3,3.8,4.6,9.2,4.7,16.3v9.7c0,7.3-1.5,12.9-4.5,16.8c-3,3.9-7.4,5.8-13.3,5.8c-5.7,0-10.1-1.9-13.2-5.7
		c-3-3.8-4.6-9.2-4.7-16.3V293.8z M246.4,472h-6.7v-39.2h6.7V472z M246,425c-0.7,0.7-1.7,1.1-3,1.1c-1.3,0-2.3-0.4-2.9-1.1
		c-0.7-0.7-1-1.6-1-2.7c0-1.1,0.3-2,1-2.8c0.7-0.7,1.6-1.1,2.9-1.1c1.3,0,2.3,0.4,3,1.1c0.7,0.8,1,1.7,1,2.8
		C247.1,423.4,246.7,424.3,246,425z M262.9,472h-6.7v-55.7h6.7V472z M263.9,395.9c-2.8,2.1-6.4,3.2-10.9,3.2c-3.1,0-5.9-0.6-8.3-1.7
		c-2.4-1.1-4.3-2.7-5.7-4.7c-1.4-2-2.1-4.2-2.1-6.5h6.7c0.1,2.3,1,4,2.7,5.4c1.7,1.3,3.9,2,6.7,2c2.5,0,4.6-0.5,6.1-1.5
		c1.5-1,2.3-2.4,2.3-4.1c0-1.8-0.7-3.2-2.1-4.2c-1.4-1-3.7-1.9-7.1-2.6c-3.4-0.7-6.1-1.6-8.1-2.6c-2-1-3.5-2.2-4.4-3.6
		c-1-1.4-1.4-3.1-1.4-5c0-3.2,1.4-5.9,4.1-8.2c2.7-2.2,6.2-3.3,10.4-3.3c4.4,0,8.1,1.2,10.8,3.5c2.8,2.3,4.2,5.2,4.2,8.8H261
		c0-1.8-0.8-3.4-2.3-4.8s-3.5-2-5.9-2c-2.4,0-4.3,0.5-5.7,1.6c-1.4,1.1-2.1,2.5-2.1,4.2c0,1.6,0.6,2.8,1.9,3.7s3.6,1.6,6.9,2.4
		c3.4,0.8,6.1,1.6,8.1,2.7s3.6,2.3,4.6,3.8c1,1.5,1.5,3.2,1.5,5.4C268.1,391,266.7,393.8,263.9,395.9z M303.6,472h-6.2l-0.3-4.2
		c-2.7,3.3-6.4,4.9-11.2,4.9c-4.5,0-8.2-1.9-11.1-5.6c-2.9-3.7-4.3-8.6-4.3-14.6V452c0-6,1.4-10.9,4.3-14.5
		c2.9-3.7,6.6-5.5,11.2-5.5c4.6,0,8.2,1.6,10.9,4.7v-20.4h6.7V472z M306.9,380.7h-26.6c0.1,3.9,1.2,7,3.4,9.4
		c2.2,2.4,4.9,3.6,8.2,3.6c2.4,0,4.4-0.5,6-1.5c1.6-1,3.1-2.2,4.3-3.8l4.1,3.2c-3.3,5-8.2,7.6-14.8,7.6c-5.3,0-9.6-1.7-13-5.2
		c-3.3-3.5-5-8.2-5-14v-1.2c0-3.9,0.7-7.4,2.2-10.4c1.5-3.1,3.6-5.5,6.2-7.2c2.7-1.7,5.6-2.6,8.7-2.6c5.1,0,9.1,1.7,11.9,5
		c2.8,3.4,4.2,8.2,4.2,14.4V380.7z M319.8,472h-6.7v-39.2h6.7V472z M319.5,425c-0.7,0.7-1.7,1.1-3,1.1c-1.3,0-2.3-0.4-2.9-1.1
		c-0.7-0.7-1-1.6-1-2.7c0-1.1,0.3-2,1-2.8c0.7-0.7,1.6-1.1,2.9-1.1c1.3,0,2.3,0.4,3,1.1c0.7,0.8,1,1.7,1,2.8
		C320.5,423.4,320.2,424.3,319.5,425z M400.1,471c0,5.1-1.5,9.1-4.5,12c-3,2.9-7.1,4.4-12.1,4.4c-2.8,0-5.6-0.6-8.3-1.8
		c-2.7-1.2-4.8-2.9-6.2-5l3.5-4c2.9,3.5,6.4,5.3,10.6,5.3c3.3,0,5.8-0.9,7.6-2.8c1.8-1.8,2.7-4.4,2.7-7.8V468
		c-2.7,3.1-6.3,4.6-11,4.6c-4.6,0-8.3-1.8-11.1-5.5c-2.8-3.7-4.3-8.7-4.3-15.1c0-6.1,1.4-11,4.2-14.6c2.8-3.6,6.6-5.4,11.2-5.4
		c4.8,0,8.5,1.7,11.2,5.1l0.3-4.4h6.1V471z M378.9,293.8c0-7.4,1.5-13,4.6-16.8c3.1-3.8,7.5-5.7,13.2-5.7c5.8,0,10.2,1.9,13.2,5.7
		c3,3.8,4.6,9.2,4.7,16.3v9.7c0,7.3-1.5,12.9-4.5,16.8c-3,3.9-7.4,5.8-13.3,5.8c-5.7,0-10.1-1.9-13.2-5.7s-4.6-9.2-4.7-16.3V293.8z
		 M337.8,293.8c0-7.4,1.5-13,4.6-16.8c3.1-3.8,7.5-5.7,13.2-5.7c5.8,0,10.2,1.9,13.2,5.7c3,3.8,4.6,9.2,4.7,16.3v9.7
		c0,7.3-1.5,12.9-4.5,16.8c-3,3.9-7.4,5.8-13.3,5.8c-5.7,0-10.1-1.9-13.2-5.7s-4.6-9.2-4.7-16.3V293.8z M335.6,437.7
		c3-3.8,6.9-5.7,11.8-5.7c8.3,0,12.5,4.7,12.5,14V472h-6.7v-26c0-2.8-0.7-4.9-1.9-6.3c-1.3-1.4-3.2-2-5.9-2c-2.2,0-4.1,0.6-5.7,1.7
		c-1.6,1.2-2.9,2.7-3.8,4.6v28h-6.7v-39.2h6.3L335.6,437.7z M327.7,276.9c3,3.8,4.6,9.2,4.7,16.3v9.7c0,7.3-1.5,12.9-4.5,16.8
		c-3,3.9-7.4,5.8-13.3,5.8c-5.7,0-10.1-1.9-13.2-5.7c-3-3.8-4.6-9.2-4.7-16.3v-9.7c0-7.4,1.5-13,4.6-16.8c3.1-3.8,7.5-5.7,13.2-5.7
		C320.3,271.2,324.7,273.1,327.7,276.9z"/>
	<path class="st0" d="M314.6,317c2.6,0,4.4-1,5.5-3c1.1-2,1.7-5.1,1.8-9.2v-12.6c0-4.4-0.6-7.6-1.8-9.6c-1.2-2-3.1-3-5.6-3
		c-2.5,0-4.3,1-5.5,2.9c-1.2,1.9-1.8,4.9-1.9,8.9v12.8c0,4.3,0.6,7.5,1.8,9.6C310.1,316,312,317,314.6,317z"/>
	<path class="st1" d="M171.6,317.1c-2.6,0-4.5-0.8-5.9-2.3c-1.4-1.5-2.1-3.7-2.1-6.6h-10.5c0,5,1.4,8.9,4.1,11.9
		c2.7,3,6.6,4.7,11.5,5.3v7.2h5.8v-7.2c4.5-0.5,8-2,10.6-4.5c2.6-2.6,3.8-5.9,3.8-10c0-2.2-0.3-4.1-1-5.8c-0.7-1.7-1.7-3.1-2.9-4.4
		c-1.3-1.3-2.9-2.5-4.7-3.5c-1.9-1-4.2-2.1-7.1-3.3c-2.9-1.2-4.9-2.3-5.9-3.4c-1.1-1.1-1.6-2.6-1.6-4.4c0-2,0.5-3.5,1.6-4.7
		c1.1-1.1,2.6-1.7,4.6-1.7c2,0,3.6,0.7,4.8,2.2c1.2,1.4,1.8,3.6,1.8,6.5h10.5c0-4.7-1.2-8.6-3.6-11.5c-2.4-3-5.8-4.8-10-5.4v-7.9
		h-5.8v7.8c-4.3,0.4-7.8,2-10.4,4.6c-2.6,2.6-3.9,6-3.9,10c0,2.4,0.4,4.4,1.1,6.1c0.8,1.7,1.8,3.2,3.2,4.5c1.4,1.3,3,2.4,4.9,3.4
		s4.2,2,6.8,3c2.6,1,4.5,2.1,5.6,3.2c1.1,1.2,1.6,2.8,1.6,4.7c0,1.9-0.6,3.4-1.8,4.5C175.4,316.5,173.7,317.1,171.6,317.1z"/>
	<path class="st1" d="M203.7,323.5c2.7,1.3,5.7,1.9,8.9,1.9c3.6,0,6.8-0.7,9.5-2.2c2.7-1.5,4.7-3.6,6.2-6.3c1.4-2.7,2.2-5.7,2.2-9.2
		c0-5.6-1.4-10-4.3-13.1c-2.9-3.1-6.8-4.7-11.8-4.7c-2.8,0-5.5,0.7-7.9,2l1.3-11.3h21V272h-29.6l-3,26.8l8.3,2.1l1-0.9
		c1.6-1.3,3.6-2,6.1-2c2.7,0,4.8,0.8,6.3,2.4c1.5,1.6,2.2,3.9,2.2,6.9c0,3.1-0.6,5.5-1.9,7.2c-1.3,1.7-3.1,2.6-5.5,2.6
		c-2.1,0-3.9-0.6-5.2-1.8c-1.3-1.2-2.1-2.9-2.3-5.1h-10.4c0.1,3,0.9,5.7,2.5,8C198.8,320.4,201,322.2,203.7,323.5z"/>
	<path class="st1" d="M253.4,325.5c5.8,0,10.3-1.9,13.3-5.8c3-3.9,4.5-9.5,4.5-16.8v-9.7c-0.1-7.1-1.6-12.5-4.7-16.3
		c-3-3.8-7.4-5.7-13.2-5.7c-5.7,0-10.2,1.9-13.2,5.7c-3.1,3.8-4.6,9.4-4.6,16.8v9.7c0.1,7.1,1.6,12.5,4.7,16.3
		C243.2,323.6,247.6,325.5,253.4,325.5z M246,291.4c0.1-4,0.7-7,1.9-8.9c1.2-1.9,3-2.9,5.5-2.9c2.5,0,4.4,1,5.6,3
		c1.2,2,1.8,5.2,1.8,9.6v12.6c0,4.1-0.6,7.2-1.8,9.2c-1.1,2-3,3-5.5,3c-2.6,0-4.5-1-5.6-3.1c-1.2-2.1-1.8-5.3-1.8-9.6V291.4z"/>
	<path class="st1" d="M283.6,325.1c1.7,0,3.2-0.5,4.3-1.5c1.1-1,1.7-2.4,1.7-4c0-1.7-0.6-3-1.7-4.1c-1.1-1-2.5-1.6-4.3-1.6
		c-1.7,0-3.1,0.5-4.2,1.6c-1.1,1-1.7,2.4-1.7,4.1c0,1.6,0.6,3,1.7,4C280.5,324.6,281.9,325.1,283.6,325.1z"/>
	<path class="st1" d="M301.3,277c-3.1,3.8-4.6,9.4-4.6,16.8v9.7c0.1,7.1,1.6,12.5,4.7,16.3c3,3.8,7.4,5.7,13.2,5.7
		c5.8,0,10.3-1.9,13.3-5.8c3-3.9,4.5-9.5,4.5-16.8v-9.7c-0.1-7.1-1.6-12.5-4.7-16.3c-3-3.8-7.4-5.7-13.2-5.7
		C308.8,271.2,304.3,273.1,301.3,277z M307.2,291.4c0.1-4,0.7-7,1.9-8.9c1.2-1.9,3-2.9,5.5-2.9c2.5,0,4.4,1,5.6,3
		c1.2,2,1.8,5.2,1.8,9.6v12.6c0,4.1-0.6,7.2-1.8,9.2c-1.1,2-3,3-5.5,3c-2.6,0-4.5-1-5.6-3.1c-1.2-2.1-1.8-5.3-1.8-9.6V291.4z"/>
	<path class="st1" d="M355.7,325.5c5.8,0,10.3-1.9,13.3-5.8c3-3.9,4.5-9.5,4.5-16.8v-9.7c-0.1-7.1-1.6-12.5-4.7-16.3
		c-3-3.8-7.4-5.7-13.2-5.7c-5.7,0-10.2,1.9-13.2,5.7c-3.1,3.8-4.6,9.4-4.6,16.8v9.7c0.1,7.1,1.6,12.5,4.7,16.3
		S350,325.5,355.7,325.5z M348.3,291.4c0.1-4,0.7-7,1.9-8.9c1.2-1.9,3-2.9,5.5-2.9c2.5,0,4.4,1,5.6,3c1.2,2,1.8,5.2,1.8,9.6v12.6
		c0,4.1-0.6,7.2-1.8,9.2c-1.1,2-3,3-5.5,3c-2.6,0-4.5-1-5.6-3.1c-1.2-2.1-1.8-5.3-1.8-9.6V291.4z"/>
	<path class="st1" d="M396.8,325.5c5.8,0,10.3-1.9,13.3-5.8c3-3.9,4.5-9.5,4.5-16.8v-9.7c-0.1-7.1-1.6-12.5-4.7-16.3
		c-3-3.8-7.4-5.7-13.2-5.7c-5.7,0-10.2,1.9-13.2,5.7c-3.1,3.8-4.6,9.4-4.6,16.8v9.7c0.1,7.1,1.6,12.5,4.7,16.3
		S391.1,325.5,396.8,325.5z M389.4,291.4c0.1-4,0.7-7,1.9-8.9c1.2-1.9,3-2.9,5.5-2.9c2.5,0,4.4,1,5.6,3c1.2,2,1.8,5.2,1.8,9.6v12.6
		c0,4.1-0.6,7.2-1.8,9.2c-1.1,2-3,3-5.5,3c-2.6,0-4.5-1-5.6-3.1c-1.2-2.1-1.8-5.3-1.8-9.6V291.4z"/>
	<path class="st1" d="M182.6,370.6c2.4-1,4.3-2.5,5.7-4.4c1.4-1.9,2.1-4.1,2.1-6.5c0-4.6-1.4-8.1-4.3-10.5
		c-2.9-2.4-7.2-3.5-12.9-3.5h-17.3v52.8h18.3c5.6,0,10-1.4,13-4.1c3.1-2.7,4.6-6.4,4.6-11.2c0-3.1-0.8-5.8-2.5-8
		C187.7,372.9,185.5,371.4,182.6,370.6z M162.9,351.3h10.3c3.5,0,6,0.7,7.7,2c1.7,1.3,2.5,3.4,2.5,6.3c0,2.6-0.9,4.7-2.7,6.2
		c-1.8,1.5-4.3,2.3-7.3,2.3h-10.5V351.3z M182.1,390.1c-1.9,1.7-4.4,2.5-7.7,2.5h-11.5v-19h11.6c6.9,0,10.4,3.2,10.4,9.5
		C184.9,386.1,183.9,388.5,182.1,390.1z"/>
	<path class="st1" d="M229.5,371.1c-0.1-4-1.4-7.1-4-9.3s-6.1-3.4-10.6-3.4c-2.9,0-5.5,0.5-7.9,1.6c-2.4,1.1-4.3,2.5-5.7,4.3
		c-1.4,1.8-2.1,3.7-2.1,5.7h6.7c0-1.7,0.8-3.2,2.4-4.4c1.6-1.2,3.6-1.8,6-1.8c2.7,0,4.8,0.7,6.2,2.1c1.4,1.4,2.1,3.3,2.1,5.6v3.1
		h-6.5c-5.6,0-10,1.1-13.1,3.4c-3.1,2.3-4.7,5.4-4.7,9.5c0,3.4,1.2,6.1,3.7,8.3c2.5,2.2,5.6,3.3,9.5,3.3c4.3,0,8-1.6,11.2-4.9
		c0.2,2,0.6,3.4,0.9,4.1h7v-0.6c-0.9-2.1-1.4-5-1.4-8.6V371.1z M222.8,387.4c-0.8,1.7-2.2,3.2-4.1,4.2c-1.9,1.1-3.9,1.6-6,1.6
		c-2.2,0-4-0.6-5.4-1.8c-1.4-1.2-2.1-2.8-2.1-4.9c0-4.8,4.1-7.2,12.3-7.2h5.3V387.4z"/>
	<path class="st1" d="M262,378.4c-2.1-1-4.8-1.9-8.1-2.7c-3.3-0.8-5.7-1.5-6.9-2.4s-1.9-2-1.9-3.7c0-1.7,0.7-3.1,2.1-4.2
		c1.4-1.1,3.3-1.6,5.7-1.6c2.4,0,4.3,0.7,5.9,2s2.3,2.9,2.3,4.8h6.7c0-3.6-1.4-6.5-4.2-8.8c-2.8-2.3-6.4-3.5-10.8-3.5
		c-4.2,0-7.7,1.1-10.4,3.3c-2.7,2.2-4.1,4.9-4.1,8.2c0,1.9,0.5,3.6,1.4,5c1,1.4,2.4,2.6,4.4,3.6c2,1,4.7,1.9,8.1,2.6
		c3.4,0.7,5.8,1.6,7.1,2.6c1.4,1,2.1,2.4,2.1,4.2c0,1.7-0.8,3.1-2.3,4.1c-1.5,1-3.6,1.5-6.1,1.5c-2.8,0-5-0.7-6.7-2
		c-1.7-1.3-2.6-3.1-2.7-5.4h-6.7c0,2.3,0.7,4.5,2.1,6.5c1.4,2,3.3,3.5,5.7,4.7c2.4,1.1,5.2,1.7,8.3,1.7c4.5,0,8.1-1.1,10.9-3.2
		c2.8-2.1,4.2-4.9,4.2-8.4c0-2.1-0.5-3.9-1.5-5.4C265.6,380.7,264,379.4,262,378.4z"/>
	<path class="st1" d="M290.8,358.4c-3.1,0-6,0.9-8.7,2.6c-2.7,1.7-4.8,4.1-6.2,7.2c-1.5,3.1-2.2,6.5-2.2,10.4v1.2
		c0,5.9,1.7,10.5,5,14c3.3,3.5,7.7,5.2,13,5.2c6.6,0,11.5-2.5,14.8-7.6l-4.1-3.2c-1.2,1.6-2.7,2.9-4.3,3.8c-1.6,1-3.6,1.5-6,1.5
		c-3.3,0-6.1-1.2-8.2-3.6c-2.2-2.4-3.3-5.5-3.4-9.4h26.6v-2.8c0-6.3-1.4-11.1-4.2-14.4C299.8,360.1,295.9,358.4,290.8,358.4z
		 M300.2,375.1h-19.6c0.4-3.5,1.6-6.3,3.4-8.3c1.8-2,4.1-3,6.8-3c2.8,0,5,0.9,6.7,2.8c1.6,1.9,2.6,4.5,2.8,7.9V375.1z"/>
	<path class="st1" d="M182.6,444.2c2.4-1,4.3-2.5,5.7-4.4c1.4-1.9,2.1-4.1,2.1-6.5c0-4.6-1.4-8.1-4.3-10.5
		c-2.9-2.4-7.2-3.5-12.9-3.5h-17.3V472h18.3c5.6,0,10-1.4,13-4.1c3.1-2.7,4.6-6.4,4.6-11.2c0-3.1-0.8-5.8-2.5-8
		C187.7,446.5,185.5,445,182.6,444.2z M162.9,424.9h10.3c3.5,0,6,0.7,7.7,2c1.7,1.3,2.5,3.4,2.5,6.3c0,2.6-0.9,4.7-2.7,6.2
		c-1.8,1.5-4.3,2.3-7.3,2.3h-10.5V424.9z M182.1,463.8c-1.9,1.7-4.4,2.5-7.7,2.5h-11.5v-19h11.6c6.9,0,10.4,3.2,10.4,9.5
		C184.9,459.8,183.9,462.1,182.1,463.8z"/>
	<path class="st1" d="M223.7,461.3c-1.7,3.8-5.1,5.7-10.2,5.7c-4.8,0-7.3-3-7.3-8.9v-25.4h-6.7v25.5c0,4.8,1.1,8.4,3.3,10.8
		c2.2,2.4,5.4,3.6,9.6,3.6c5.1,0,8.9-1.5,11.5-4.6l0.1,3.9h6.4v-39.2h-6.7V461.3z"/>
	<path class="st1" d="M243.1,418.4c-1.3,0-2.3,0.4-2.9,1.1c-0.7,0.8-1,1.7-1,2.8c0,1.1,0.3,2,1,2.7c0.7,0.7,1.6,1.1,2.9,1.1
		c1.3,0,2.3-0.4,3-1.1c0.7-0.7,1-1.6,1-2.7c0-1.1-0.3-2-1-2.8C245.4,418.8,244.4,418.4,243.1,418.4z"/>
	<rect x="239.7" y="432.7" class="st1" width="6.7" height="39.2"/>
	<rect x="256.2" y="416.3" class="st1" width="6.7" height="55.7"/>
	<path class="st1" d="M296.9,436.7c-2.7-3.1-6.3-4.7-10.9-4.7c-4.6,0-8.3,1.8-11.2,5.5c-2.9,3.7-4.3,8.5-4.3,14.5v0.5
		c0,6,1.4,10.9,4.3,14.6c2.9,3.7,6.6,5.6,11.1,5.6c4.8,0,8.5-1.6,11.2-4.9l0.3,4.2h6.2v-55.7h-6.7V436.7z M296.9,461.3
		c-2,3.8-5.1,5.7-9.3,5.7c-3.2,0-5.8-1.3-7.6-3.8c-1.8-2.5-2.8-6-2.8-10.4c0-5,0.9-8.7,2.8-11.3c1.8-2.5,4.4-3.8,7.7-3.8
		c4.2,0,7.2,1.8,9.2,5.5V461.3z"/>
	<path class="st1" d="M316.5,418.4c-1.3,0-2.3,0.4-2.9,1.1c-0.7,0.8-1,1.7-1,2.8c0,1.1,0.3,2,1,2.7c0.7,0.7,1.6,1.1,2.9,1.1
		c1.3,0,2.3-0.4,3-1.1c0.7-0.7,1-1.6,1-2.7c0-1.1-0.3-2-1-2.8C318.8,418.8,317.8,418.4,316.5,418.4z"/>
	<rect x="313.1" y="432.7" class="st1" width="6.7" height="39.2"/>
	<path class="st1" d="M329.1,472h6.7v-28c0.9-1.9,2.2-3.4,3.8-4.6c1.6-1.2,3.6-1.7,5.7-1.7c2.7,0,4.7,0.7,5.9,2
		c1.3,1.4,1.9,3.4,1.9,6.3v26h6.7V446c-0.1-9.4-4.3-14-12.5-14c-4.8,0-8.7,1.9-11.8,5.7l-0.2-4.9h-6.3V472z"/>
	<path class="st1" d="M393.6,437.1c-2.7-3.4-6.4-5.1-11.2-5.1c-4.7,0-8.4,1.8-11.2,5.4c-2.8,3.6-4.2,8.5-4.2,14.6
		c0,6.4,1.4,11.4,4.3,15.1c2.8,3.7,6.6,5.5,11.1,5.5c4.6,0,8.3-1.6,11-4.6v3.4c0,3.3-0.9,5.9-2.7,7.8c-1.8,1.8-4.4,2.8-7.6,2.8
		c-4.2,0-7.7-1.8-10.6-5.3l-3.5,4c1.4,2.1,3.5,3.8,6.2,5c2.7,1.2,5.5,1.8,8.3,1.8c5.1,0,9.1-1.5,12.1-4.4c3-2.9,4.5-6.9,4.5-12
		v-38.3H394L393.6,437.1z M393.4,461.2c-2,3.8-5.1,5.8-9.3,5.8c-3.3,0-5.8-1.3-7.6-3.8c-1.8-2.5-2.7-6-2.7-10.4
		c0-5,0.9-8.7,2.8-11.3c1.8-2.5,4.4-3.8,7.7-3.8c4.1,0,7.2,1.9,9.2,5.6V461.2z"/>
	<path class="st1" d="M307,175.2L78.2,262.8l-2.7,1.1V537h461.6V263.9l-228.5-88.1L307,175.2z M528.6,528.5H84V269.8l223-85.4
		l221.5,85.4V528.5z"/>
</g>
</svg>
